<?xml version='1.0' encoding='utf-8'?>
<svg xmlns="http://www.w3.org/2000/svg" width="100%" height="100%" viewBox="0 0 70.0 62.0">
  <rect x="0.5" y="0.5" width="69.0" height="61.0" rx="2" ry="2" id="shield" style="fill:#00a77a;stroke:#004C00;stroke-width:1;"/>
</svg>
