<?xml version='1.0' encoding='utf-8'?>
<svg xmlns="http://www.w3.org/2000/svg" width="100%" height="100%" viewBox="0 0 34.0 42.0">
  <rect x="0.5" y="0.5" width="33.0" height="41.0" rx="2" ry="2" id="shield" style="fill:#d64a54;stroke:#99242c;stroke-width:1;"/>
</svg>
