<?xml version='1.0' encoding='utf-8'?>
<svg xmlns="http://www.w3.org/2000/svg" width="100%" height="100%" viewBox="0 0 44.0 51.0">
  <rect x="0.5" y="0.5" width="43.0" height="50.0" rx="2" ry="2" id="shield" style="fill:#6b88c2;stroke:#35486d;stroke-width:1;"/>
</svg>
